// Jest Snapshot v1, https://goo.gl/fbAQLP

exports[`src/components/forms/Address render 1`] = `
<form
  onSubmit={[Function]}
>
  <Field
    component={[Function]}
    inputProps={
      Object {
        "label": "Alamat Perusahaan",
        "placeholder": "Isikan alamat perusahaan",
        "required": true,
      }
    }
    name="store_address"
  />
  <Field
    component={[Function]}
    name="store_province_id"
    options={Array []}
    selectProps={
      Object {
        "label": "Provinsi",
        "placeholder": "Pilih provinsi alamat perusahaan",
        "required": true,
      }
    }
  />
  <Field
    component={[Function]}
    name="store_city_id"
    options={Array []}
    selectProps={
      Object {
        "label": "Kota / Kabupaten",
        "placeholder": "Pilih kota / kabupaten alamat perusahaan",
        "required": true,
      }
    }
  />
  <Field
    component={[Function]}
    name="store_subdistrict_id"
    options={Array []}
    selectProps={
      Object {
        "label": "Kecamatan",
        "placeholder": "Pilih kecamatan alamat perusahaan",
        "required": true,
      }
    }
  />
  <Field
    component={[Function]}
    name="store_village_id"
    options={Array []}
    selectProps={
      Object {
        "label": "Kelurahan / Desa",
        "placeholder": "Pilih kelurahan / desa alamat perusahaan",
        "required": true,
      }
    }
  />
  <footer>
    <Button
      className=""
      color="primary"
      disabled={false}
      fixed={true}
      icon={null}
      isLoading={false}
      onClick={[Function]}
      rounded={false}
      size="large"
      to=""
      type="button"
      variant="ghost"
    >
      Batal
    </Button>
    <Button
      className=""
      color="primary"
      disabled={true}
      fixed={true}
      icon={null}
      isLoading={false}
      onClick={[Function]}
      rounded={false}
      size="large"
      to=""
      type="submit"
      variant="filled"
    >
      Simpan!
    </Button>
  </footer>
</form>
`;
