<svg width="24" height="24" viewBox="0 0 24 24" fill="none" xmlns="http://www.w3.org/2000/svg">
<path d="M16.5938 8.57812L18 9.98438L12 15.9844L6 9.98438L7.40625 8.57812L12 13.1719L16.5938 8.57812Z" fill="#424242"/>
</svg>
