<svg width="12" height="12" viewBox="0 0 12 12" fill="none" xmlns="http://www.w3.org/2000/svg">
<path fill-rule="evenodd" clip-rule="evenodd" d="M6 0.90625C4.99229 0.906247 4.0072 1.20506 3.16931 1.7649C2.33142 2.32475 1.67835 3.12048 1.29269 4.05147C0.907029 4.98247 0.806095 6.00692 1.00265 6.99528C1.19921 7.98363 1.68443 8.89151 2.39695 9.60411C3.10947 10.3167 4.0173 10.802 5.00564 10.9987C5.99398 11.1953 7.01844 11.0945 7.94948 10.709C8.88051 10.3234 9.67631 9.6704 10.2362 8.83257C10.7962 7.99473 11.0951 7.00968 11.0952 6.00197C11.0937 4.65104 10.5564 3.35587 9.60124 2.40057C8.64604 1.44528 7.35092 0.907873 6 0.90625ZM6 9.82325C5.24415 9.82331 4.50525 9.59922 3.87676 9.17933C3.24826 8.75943 2.7584 8.16259 2.46912 7.46428C2.17984 6.76598 2.10413 5.99757 2.25158 5.25623C2.39902 4.5149 2.76299 3.83394 3.29746 3.29946C3.83193 2.76499 4.51289 2.40102 5.25422 2.25357C5.99555 2.10612 6.76396 2.18182 7.46227 2.4711C8.16058 2.76037 8.75743 3.25023 9.17732 3.87872C9.59722 4.50722 9.82131 5.24611 9.82126 6.00197C9.82122 7.01542 9.41861 7.98735 8.702 8.70397C7.98538 9.42058 7.01345 9.8232 6 9.82324V9.82325ZM6 7.27537C5.87399 7.27531 5.75079 7.31262 5.64599 7.38259C5.54119 7.45256 5.4595 7.55204 5.41125 7.66844C5.36299 7.78485 5.35035 7.91295 5.37491 8.03654C5.39948 8.16014 5.46014 8.27367 5.54924 8.36278C5.63834 8.45188 5.75187 8.51256 5.87546 8.53714C5.99905 8.56171 6.12715 8.54908 6.24356 8.50084C6.35997 8.4526 6.45946 8.37091 6.52944 8.26612C6.59942 8.16132 6.63674 8.03813 6.63669 7.91212C6.63666 7.74326 6.56958 7.58133 6.45018 7.46192C6.33079 7.34251 6.16886 7.27541 6 7.27536V7.27537ZM6 3.45411C5.83114 3.45414 5.6692 3.52123 5.54979 3.64063C5.43038 3.76003 5.36329 3.92197 5.36325 4.09083V6.00197C5.36325 6.17083 5.43034 6.33279 5.54974 6.45219C5.66915 6.5716 5.8311 6.63868 5.99997 6.63868C6.16884 6.63868 6.33079 6.5716 6.4502 6.45219C6.56961 6.33279 6.63669 6.17083 6.63669 6.00197V4.09082C6.63672 4.0072 6.62027 3.92439 6.58829 3.84713C6.5563 3.76987 6.5094 3.69967 6.45028 3.64054C6.39115 3.58141 6.32095 3.53451 6.24369 3.50252C6.16643 3.47053 6.08362 3.45408 6 3.4541V3.45411Z" fill="#424242"/>
</svg>
