// Jest Snapshot v1, https://goo.gl/fbAQLP

exports[`src/components/forms/Profile Address 1`] = `
<div>
  <React.Fragment>
    <p>
      Alamat Perusahaan
      <span>
        *
      </span>
    </p>
    <Button
      className=""
      color="primary"
      disabled={false}
      fixed={true}
      icon={null}
      isLoading={false}
      onClick={[Function]}
      rounded={false}
      size="large"
      to=""
      type="button"
      variant="filled"
    >
      Isi Alamat Perusahaan Anda disini
    </Button>
  </React.Fragment>
  <Modal
    className=""
    onClose={[Function]}
    open={false}
  >
    <h4>
      Isi Alamat Perusahaan
    </h4>
    <ReduxForm
      destroyOnUnmount={true}
      enableReinitialize={false}
      forceUnregisterOnUnmount={false}
      form="address"
      formName="profile"
      getFormState={[Function]}
      initial={
        Object {
          "store_address": undefined,
          "store_city_id": undefined,
          "store_province_id": undefined,
          "store_subdistrict_id": undefined,
          "store_village_id": undefined,
        }
      }
      keepDirtyOnReinitialize={false}
      onClose={[Function]}
      onPreview={[Function]}
      onSubmit={[Function]}
      persistentSubmitErrors={false}
      pure={true}
      shouldAsyncValidate={[Function]}
      shouldError={[Function]}
      shouldValidate={[Function]}
      shouldWarn={[Function]}
      submitAsSideEffect={false}
      touchOnBlur={true}
      touchOnChange={false}
      updateUnregisteredFields={false}
      validate={[Function]}
    />
  </Modal>
</div>
`;

exports[`src/components/forms/Profile render 1`] = `
<form
  onSubmit={[Function]}
>
  <figure>
    <img
      alt="broken-image"
      src="/assets/img-empty.svg"
    />
    <Field
      component={[Function]}
      helper="Maksimum ukuran per file 2MB, tipe file JPEG / PNG"
      inputProps={
        Object {
          "accept": ".jpg, .png, .jpeg",
          "label": "Logo Perusahaan",
          "path": undefined,
        }
      }
      name="logo_path"
      onPreview={[Function]}
    />
  </figure>
  <section>
    <Field
      component={[Function]}
      inputProps={
        Object {
          "disabled": true,
          "label": "Nama Perusahaan",
          "placeholder": "Isikan nama perusahaan",
          "required": true,
        }
      }
      name="store_name"
    />
    <section>
      <Field
        component={[Function]}
        inputProps={
          Object {
            "label": "Nama Person In Charge",
            "placeholder": "Isikan nama Anda",
            "required": true,
          }
        }
        name="name"
      />
      <Field
        component={[Function]}
        inputProps={
          Object {
            "label": "Jabatan",
            "placeholder": "Isikan nama jabatan Anda",
            "required": true,
          }
        }
        name="position"
      />
    </section>
    <Field
      component={[Function]}
      name="store_description"
      textAreaProps={
        Object {
          "label": "Deskripsi Perusahaan",
          "placeholder": "Isikan deskripsi perusahaan",
        }
      }
    />
    <Address
      change={[Function]}
    />
    <Field
      component={[Function]}
      inputProps={
        Object {
          "disabled": true,
          "label": "Alamat Email",
          "required": true,
        }
      }
      name="email"
    />
    <Field
      component={[Function]}
      inputProps={
        Object {
          "label": "Nomor Telepon",
          "placeholder": "Isikan nomor telepon perusahaan",
          "required": true,
          "type": "tel",
        }
      }
      name="mobile_number"
    />
    <section>
      <Field
        component={[Function]}
        inputProps={
          Object {
            "label": "Nama Bank",
            "placeholder": "Isikan nama bank",
            "required": true,
          }
        }
        name="bank_name"
      />
      <Field
        component={[Function]}
        inputProps={
          Object {
            "label": "Nomor Rekening",
            "placeholder": "Isikan nomor rekening perusahaan",
            "required": true,
          }
        }
        name="bank_account_number"
        normalize={[Function]}
      />
    </section>
    <div>
      <p>
        Upload 
        KTP
      </p>
      <Field
        component={[Function]}
        helper="Maksimum ukuran per file 5MB, tipe file PDF"
        inputProps={
          Object {
            "accept": "application/pdf",
            "label": "Dokumen KTP",
            "path": undefined,
          }
        }
        name="ktp_path"
      />
    </div>
    <div>
      <p>
        Upload 
        NIB
      </p>
      <Field
        component={[Function]}
        helper="Maksimum ukuran per file 5MB, tipe file PDF"
        inputProps={
          Object {
            "accept": "application/pdf",
            "label": "Dokumen NIB",
            "path": undefined,
          }
        }
        name="nib_path"
      />
    </div>
    <div>
      <p>
        Upload 
        NPWP
      </p>
      <Field
        component={[Function]}
        helper="Maksimum ukuran per file 5MB, tipe file PDF"
        inputProps={
          Object {
            "accept": "application/pdf",
            "label": "Dokumen NPWP",
            "path": undefined,
          }
        }
        name="npwp_path"
      />
    </div>
    <div>
      <p>
        Upload 
        SIUP
      </p>
      <Field
        component={[Function]}
        helper="Maksimum ukuran per file 5MB, tipe file PDF"
        inputProps={
          Object {
            "accept": "application/pdf",
            "label": "Dokumen SIUP",
            "path": undefined,
          }
        }
        name="siup_path"
      />
    </div>
  </section>
  <footer>
    <Button
      className=""
      color="primary"
      disabled={false}
      fixed={false}
      icon={null}
      isLoading={false}
      onClick={[Function]}
      rounded={false}
      size="medium"
      to=""
      type="button"
      variant="ghost"
    >
      Batal
    </Button>
    <Button
      className=""
      color="primary"
      disabled={true}
      fixed={false}
      icon={null}
      isLoading={false}
      onClick={[Function]}
      rounded={false}
      size="medium"
      to=""
      type="submit"
      variant="filled"
    >
      Simpan
    </Button>
  </footer>
</form>
`;
